^D:\REPO\TEST\STDAFX.CPP
D:\REPO\TEST\DEBUG\UGS.PCH
D:\REPO\TEST\DEBUG\VC142.PDB
D:\REPO\TEST\DEBUG\VC142.IDB
D:\REPO\TEST\DEBUG\STDAFX.SBR
D:\REPO\TEST\DEBUG\UGS.PCHAST
D:\REPO\TEST\DEBUG\STDAFX.NATIVECODEANALYSIS.SARIF
D:\REPO\TEST\DEBUG\STDAFX.NATIVECODEANALYSIS.XML
D:\REPO\TEST\DEBUG\STDAFX.OBJ
^D:\REPO\TEST\CRC16.CPP|D:\REPO\TEST\DATAROUTINES.CPP|D:\REPO\TEST\EVENTLOG.CPP|D:\REPO\TEST\NTSERVAPP.CPP|D:\REPO\TEST\NTSERVICE.CPP|D:\REPO\TEST\SETTINGS.CPP|D:\REPO\TEST\UGS.CPP|D:\REPO\TEST\UGSSERVICE.CPP
D:\REPO\TEST\DEBUG\VC142.PDB
D:\REPO\TEST\DEBUG\VC142.IDB
D:\REPO\TEST\DEBUG\UGSSERVICE.SBR
D:\REPO\TEST\DEBUG\UGS.SBR
D:\REPO\TEST\DEBUG\SETTINGS.SBR
D:\REPO\TEST\DEBUG\NTSERVICE.SBR
D:\REPO\TEST\DEBUG\NTSERVAPP.SBR
D:\REPO\TEST\DEBUG\EVENTLOG.SBR
D:\REPO\TEST\DEBUG\DATAROUTINES.SBR
D:\REPO\TEST\DEBUG\CRC16.SBR
D:\REPO\TEST\DEBUG\CRC16.NATIVECODEANALYSIS.SARIF
D:\REPO\TEST\DEBUG\CRC16.NATIVECODEANALYSIS.XML
D:\REPO\TEST\DEBUG\DATAROUTINES.NATIVECODEANALYSIS.SARIF
D:\REPO\TEST\DEBUG\DATAROUTINES.NATIVECODEANALYSIS.XML
D:\REPO\TEST\DEBUG\EVENTLOG.NATIVECODEANALYSIS.SARIF
D:\REPO\TEST\DEBUG\EVENTLOG.NATIVECODEANALYSIS.XML
D:\REPO\TEST\DEBUG\NTSERVAPP.NATIVECODEANALYSIS.SARIF
D:\REPO\TEST\DEBUG\NTSERVAPP.NATIVECODEANALYSIS.XML
D:\REPO\TEST\DEBUG\NTSERVICE.NATIVECODEANALYSIS.SARIF
D:\REPO\TEST\DEBUG\NTSERVICE.NATIVECODEANALYSIS.XML
D:\REPO\TEST\DEBUG\SETTINGS.NATIVECODEANALYSIS.SARIF
D:\REPO\TEST\DEBUG\SETTINGS.NATIVECODEANALYSIS.XML
D:\REPO\TEST\DEBUG\UGS.NATIVECODEANALYSIS.SARIF
D:\REPO\TEST\DEBUG\UGS.NATIVECODEANALYSIS.XML
D:\REPO\TEST\DEBUG\UGSSERVICE.NATIVECODEANALYSIS.SARIF
D:\REPO\TEST\DEBUG\UGSSERVICE.NATIVECODEANALYSIS.XML
D:\REPO\TEST\DEBUG\UGSSERVICE.OBJ
D:\REPO\TEST\DEBUG\UGS.OBJ
D:\REPO\TEST\DEBUG\SETTINGS.OBJ
D:\REPO\TEST\DEBUG\NTSERVICE.OBJ
D:\REPO\TEST\DEBUG\NTSERVAPP.OBJ
D:\REPO\TEST\DEBUG\EVENTLOG.OBJ
D:\REPO\TEST\DEBUG\DATAROUTINES.OBJ
D:\REPO\TEST\DEBUG\CRC16.OBJ
^D:\REPO\TEST\CRC16.CPP
D:\REPO\TEST\DEBUG\VC142.PDB
^D:\REPO\TEST\DATAROUTINES.CPP
D:\REPO\TEST\DEBUG\VC142.PDB
^D:\REPO\TEST\EVENTLOG.CPP
D:\REPO\TEST\DEBUG\VC142.PDB
^D:\REPO\TEST\NTSERVAPP.CPP
D:\REPO\TEST\DEBUG\VC142.PDB
^D:\REPO\TEST\NTSERVICE.CPP
D:\REPO\TEST\DEBUG\VC142.PDB
^D:\REPO\TEST\SETTINGS.CPP
D:\REPO\TEST\DEBUG\VC142.PDB
^D:\REPO\TEST\UGS.CPP
D:\REPO\TEST\DEBUG\VC142.PDB
^D:\REPO\TEST\UGSSERVICE.CPP
D:\REPO\TEST\DEBUG\VC142.PDB
